Period,Start Mass,Stop Mass
TOF MS (+),80,1000
Swath 1,80,140.5
Swath 2,139.5,180.5
Swath 3,179.5,210.5
Swath 4,209.5,240.5
Swath 5,239.5,270.5
Swath 6,269.5,300.5
Swath 7,299.5,330.5
Swath 8,329.5,360.5
Swath 9,359.5,390.5
Swath 10,389.5,450.5
Swath 11,449.5,505.5
Swath 12,449.5,1000
